testbench/sad.vcd
$date
  Thu Oct 13 11:46:34 2011
$end
$version
  GHDL v0
$end
$timescale
  1 fs
$end
$var reg 8 ! pa[7:0] $end
$var reg 8 " pb[7:0] $end
$var reg 1 # clk $end
$var reg 1 $ reset $end
$var reg 1 % enable $end
$var reg 16 & sad[15:0] $end
$var reg 1 ' data_valid $end
$var reg 1 ( testing $end
$var integer 32 ) clk_cycle $end
$scope module sad_port $end
$var reg 8 * pa[7:0] $end
$var reg 8 + pb[7:0] $end
$var reg 1 , clk $end
$var reg 1 - reset $end
$var reg 1 . enable $end
$var reg 16 / sad[15:0] $end
$var reg 1 0 data_valid $end
$upscope $end
$enddefinitions $end
#0
b00000101 !
b00001010 "
0#
0$
1%
bUUUUUUUUUUUUUUUU &
U'
1(
b0 )
b00000101 *
b00001010 +
0,
0-
1.
bUUUUUUUUUUUUUUUU /
U0
#100000000
1#
bXXXXXXXXXXXXXXXX &
b1 )
1,
bXXXXXXXXXXXXXXXX /
#200000000
0#
0,
#300000000
1#
1$
b0000000000000000 &
0'
b10 )
1,
1-
b0000000000000000 /
00
#400000000
0#
0,
#500000000
1#
b11 )
1,
#600000000
0#
0$
0,
0-
#700000000
1#
b0000000000000101 &
b100 )
1,
b0000000000000101 /
#800000000
0#
0,
#900000000
1#
b0000000000001010 &
b101 )
1,
b0000000000001010 /
#1000000000
0#
0,
#1100000000
1#
b0000000000001111 &
b110 )
1,
b0000000000001111 /
#1200000000
0#
0,
#1300000000
1#
b0000000000010100 &
b111 )
1,
b0000000000010100 /
#1400000000
0#
0,
#1500000000
1#
b0000000000011001 &
b1000 )
1,
b0000000000011001 /
#1600000000
0#
0,
#1700000000
1#
b0000000000011110 &
b1001 )
1,
b0000000000011110 /
#1800000000
0#
0,
#1900000000
1#
b0000000000100011 &
b1010 )
1,
b0000000000100011 /
#2000000000
0#
0%
0,
0.
#2100000000
1#
b1011 )
1,
#2200000000
0#
0,
#2300000000
1#
b1100 )
1,
#2400000000
0#
0,
#2500000000
1#
b1101 )
1,
#2600000000
0#
0,
#2700000000
1#
b1110 )
1,
#2800000000
0#
0,
#2900000000
1#
b1111 )
1,
#3000000000
0#
1%
0,
1.
#3100000000
1#
b0000000000101000 &
b10000 )
1,
b0000000000101000 /
#3200000000
0#
0,
#3300000000
1#
b0000000000101101 &
b10001 )
1,
b0000000000101101 /
#3400000000
0#
0,
#3500000000
1#
b0000000000110010 &
b10010 )
1,
b0000000000110010 /
#3600000000
0#
0,
#3700000000
1#
b0000000000110111 &
b10011 )
1,
b0000000000110111 /
#3800000000
0#
0,
#3900000000
1#
b0000000000111100 &
b10100 )
1,
b0000000000111100 /
#4000000000
0#
0,
#4100000000
1#
b0000000001000001 &
b10101 )
1,
b0000000001000001 /
#4200000000
0#
0,
#4300000000
1#
b0000000001000110 &
b10110 )
1,
b0000000001000110 /
#4400000000
0#
0,
#4500000000
1#
b0000000001001011 &
b10111 )
1,
b0000000001001011 /
#4600000000
0#
0,
#4700000000
1#
b0000000001010000 &
b11000 )
1,
b0000000001010000 /
#4800000000
0#
0,
#4900000000
1#
b0000000001010101 &
b11001 )
1,
b0000000001010101 /
#5000000000
0#
0,
#5100000000
1#
b0000000001011010 &
b11010 )
1,
b0000000001011010 /
#5200000000
0#
0,
#5300000000
1#
b0000000001011111 &
b11011 )
1,
b0000000001011111 /
#5400000000
0#
0,
#5500000000
1#
b0000000001100100 &
b11100 )
1,
b0000000001100100 /
#5600000000
0#
0,
#5700000000
1#
b0000000001101001 &
b11101 )
1,
b0000000001101001 /
#5800000000
0#
0,
#5900000000
1#
b0000000001101110 &
b11110 )
1,
b0000000001101110 /
#6000000000
0#
0,
#6100000000
1#
b0000000001110011 &
b11111 )
1,
b0000000001110011 /
#6200000000
0#
0,
#6300000000
1#
b0000000001111000 &
b100000 )
1,
b0000000001111000 /
#6400000000
0#
0,
#6500000000
1#
b0000000001111101 &
b100001 )
1,
b0000000001111101 /
#6600000000
0#
0,
#6700000000
1#
b0000000010000010 &
b100010 )
1,
b0000000010000010 /
#6800000000
0#
0,
#6900000000
1#
b0000000010000111 &
b100011 )
1,
b0000000010000111 /
#7000000000
0#
0,
#7100000000
1#
b0000000010001100 &
b100100 )
1,
b0000000010001100 /
#7200000000
0#
0,
#7300000000
1#
b0000000010010001 &
b100101 )
1,
b0000000010010001 /
#7400000000
0#
0,
#7500000000
1#
b0000000010010110 &
b100110 )
1,
b0000000010010110 /
#7600000000
0#
0,
#7700000000
1#
b0000000010011011 &
b100111 )
1,
b0000000010011011 /
#7800000000
0#
0,
#7900000000
1#
b0000000010100000 &
b101000 )
1,
b0000000010100000 /
#8000000000
0#
0,
#8100000000
1#
b0000000010100101 &
b101001 )
1,
b0000000010100101 /
#8200000000
0#
0,
#8300000000
1#
b0000000010101010 &
b101010 )
1,
b0000000010101010 /
#8400000000
0#
0,
#8500000000
1#
b0000000010101111 &
b101011 )
1,
b0000000010101111 /
#8600000000
0#
0,
#8700000000
1#
b0000000010110100 &
b101100 )
1,
b0000000010110100 /
#8800000000
0#
0,
#8900000000
1#
b0000000010111001 &
b101101 )
1,
b0000000010111001 /
#9000000000
0#
0,
#9100000000
1#
b0000000010111110 &
b101110 )
1,
b0000000010111110 /
#9200000000
0#
0,
#9300000000
1#
b0000000011000011 &
b101111 )
1,
b0000000011000011 /
#9400000000
0#
0,
#9500000000
1#
b0000000011001000 &
b110000 )
1,
b0000000011001000 /
#9600000000
0#
0,
#9700000000
1#
b0000000011001101 &
b110001 )
1,
b0000000011001101 /
#9800000000
0#
0,
#9900000000
1#
b0000000011010010 &
b110010 )
1,
b0000000011010010 /
#10000000000
0#
0,
#10100000000
1#
b0000000011010111 &
b110011 )
1,
b0000000011010111 /
#10200000000
0#
0,
#10300000000
1#
b0000000011011100 &
b110100 )
1,
b0000000011011100 /
#10400000000
0#
0,
#10500000000
1#
b0000000011100001 &
b110101 )
1,
b0000000011100001 /
#10600000000
0#
0,
#10700000000
1#
b0000000011100110 &
b110110 )
1,
b0000000011100110 /
#10800000000
0#
0,
#10900000000
1#
b0000000011101011 &
b110111 )
1,
b0000000011101011 /
#11000000000
0#
0,
#11100000000
1#
b0000000011110000 &
b111000 )
1,
b0000000011110000 /
#11200000000
0#
0,
#11300000000
1#
b0000000011110101 &
b111001 )
1,
b0000000011110101 /
#11400000000
0#
0,
#11500000000
1#
b0000000011111010 &
b111010 )
1,
b0000000011111010 /
#11600000000
0#
0,
#11700000000
1#
b0000000011111111 &
b111011 )
1,
b0000000011111111 /
#11800000000
0#
0,
#11900000000
1#
b0000000100000100 &
b111100 )
1,
b0000000100000100 /
#12000000000
0#
0,
#12100000000
1#
b0000000100001001 &
b111101 )
1,
b0000000100001001 /
#12200000000
0#
0,
#12300000000
1#
b0000000100001110 &
b111110 )
1,
b0000000100001110 /
#12400000000
0#
0,
#12500000000
1#
b0000000100010011 &
b111111 )
1,
b0000000100010011 /
#12600000000
0#
0,
#12700000000
1#
b0000000100011000 &
b1000000 )
1,
b0000000100011000 /
#12800000000
0#
0,
#12900000000
1#
b0000000100011101 &
b1000001 )
1,
b0000000100011101 /
#13000000000
0#
0,
#13100000000
1#
b0000000100100010 &
b1000010 )
1,
b0000000100100010 /
#13200000000
0#
0,
#13300000000
1#
b0000000100100111 &
b1000011 )
1,
b0000000100100111 /
#13400000000
0#
0,
#13500000000
1#
b0000000100101100 &
b1000100 )
1,
b0000000100101100 /
#13600000000
0#
0,
#13700000000
1#
b0000000100110001 &
b1000101 )
1,
b0000000100110001 /
#13800000000
0#
0,
#13900000000
1#
b0000000100110110 &
b1000110 )
1,
b0000000100110110 /
#14000000000
0#
0,
#14100000000
1#
b0000000100111011 &
b1000111 )
1,
b0000000100111011 /
#14200000000
0#
0,
#14300000000
1#
b0000000101000000 &
b1001000 )
1,
b0000000101000000 /
#14400000000
0#
0,
#14500000000
1#
b0000000101000101 &
b1001001 )
1,
b0000000101000101 /
#14600000000
0#
0,
#14700000000
1#
b0000000101001010 &
b1001010 )
1,
b0000000101001010 /
#14800000000
0#
0,
#14900000000
1#
b0000000101001111 &
b1001011 )
1,
b0000000101001111 /
#15000000000
0#
0,
#15100000000
1#
b0000000101010100 &
b1001100 )
1,
b0000000101010100 /
#15200000000
0#
0,
#15300000000
1#
b0000000101011001 &
b1001101 )
1,
b0000000101011001 /
#15400000000
0#
0,
#15500000000
1#
b0000000101011110 &
b1001110 )
1,
b0000000101011110 /
#15600000000
0#
0,
#15700000000
1#
b0000000101100011 &
b1001111 )
1,
b0000000101100011 /
#15800000000
0#
0,
#15900000000
1#
b0000000101101000 &
b1010000 )
1,
b0000000101101000 /
#16000000000
0#
0,
#16100000000
1#
b0000000101101101 &
b1010001 )
1,
b0000000101101101 /
#16200000000
0#
0,
#16300000000
1#
b0000000101110010 &
b1010010 )
1,
b0000000101110010 /
#16400000000
0#
0,
#16500000000
1#
b0000000101110111 &
b1010011 )
1,
b0000000101110111 /
#16600000000
0#
0,
#16700000000
1#
b0000000101111100 &
b1010100 )
1,
b0000000101111100 /
#16800000000
0#
0,
#16900000000
1#
b0000000110000001 &
b1010101 )
1,
b0000000110000001 /
#17000000000
0#
0,
#17100000000
1#
b0000000110000110 &
b1010110 )
1,
b0000000110000110 /
#17200000000
0#
0,
#17300000000
1#
b0000000110001011 &
b1010111 )
1,
b0000000110001011 /
#17400000000
0#
0,
#17500000000
1#
b0000000110010000 &
b1011000 )
1,
b0000000110010000 /
#17600000000
0#
0,
#17700000000
1#
b0000000110010101 &
b1011001 )
1,
b0000000110010101 /
#17800000000
0#
0,
#17900000000
1#
b0000000110011010 &
b1011010 )
1,
b0000000110011010 /
#18000000000
0#
0,
#18100000000
1#
b0000000110011111 &
b1011011 )
1,
b0000000110011111 /
#18200000000
0#
0,
#18300000000
1#
b0000000110100100 &
b1011100 )
1,
b0000000110100100 /
#18400000000
0#
0,
#18500000000
1#
b0000000110101001 &
b1011101 )
1,
b0000000110101001 /
#18600000000
0#
0,
#18700000000
1#
b0000000110101110 &
b1011110 )
1,
b0000000110101110 /
#18800000000
0#
0,
#18900000000
1#
b0000000110110011 &
b1011111 )
1,
b0000000110110011 /
#19000000000
0#
0,
#19100000000
1#
b0000000110111000 &
b1100000 )
1,
b0000000110111000 /
#19200000000
0#
0,
#19300000000
1#
b0000000110111101 &
b1100001 )
1,
b0000000110111101 /
#19400000000
0#
0,
#19500000000
1#
b0000000111000010 &
b1100010 )
1,
b0000000111000010 /
#19600000000
0#
0,
#19700000000
1#
b0000000111000111 &
b1100011 )
1,
b0000000111000111 /
#19800000000
0#
0,
#19900000000
1#
b0000000111001100 &
b1100100 )
1,
b0000000111001100 /
#20000000000
0#
0,
#20100000000
1#
b0000000111010001 &
b1100101 )
1,
b0000000111010001 /
#20200000000
0#
0,
#20300000000
1#
b0000000111010110 &
b1100110 )
1,
b0000000111010110 /
#20400000000
0#
0,
#20500000000
1#
b0000000111011011 &
b1100111 )
1,
b0000000111011011 /
#20600000000
0#
0,
#20700000000
1#
b0000000111100000 &
b1101000 )
1,
b0000000111100000 /
#20800000000
0#
0,
#20900000000
1#
b0000000111100101 &
b1101001 )
1,
b0000000111100101 /
#21000000000
0#
0,
#21100000000
1#
b0000000111101010 &
b1101010 )
1,
b0000000111101010 /
#21200000000
0#
0,
#21300000000
1#
b0000000111101111 &
b1101011 )
1,
b0000000111101111 /
#21400000000
0#
0,
#21500000000
1#
b0000000111110100 &
b1101100 )
1,
b0000000111110100 /
#21600000000
0#
0,
#21700000000
1#
b0000000111111001 &
b1101101 )
1,
b0000000111111001 /
#21800000000
0#
0,
#21900000000
1#
b0000000111111110 &
b1101110 )
1,
b0000000111111110 /
#22000000000
0#
0,
#22100000000
1#
b0000001000000011 &
b1101111 )
1,
b0000001000000011 /
#22200000000
0#
0,
#22300000000
1#
b0000001000001000 &
b1110000 )
1,
b0000001000001000 /
#22400000000
0#
0,
#22500000000
1#
b0000001000001101 &
b1110001 )
1,
b0000001000001101 /
#22600000000
0#
0,
#22700000000
1#
b0000001000010010 &
b1110010 )
1,
b0000001000010010 /
#22800000000
0#
0,
#22900000000
1#
b0000001000010111 &
b1110011 )
1,
b0000001000010111 /
#23000000000
0#
0,
#23100000000
1#
b0000001000011100 &
b1110100 )
1,
b0000001000011100 /
#23200000000
0#
0,
#23300000000
1#
b0000001000100001 &
b1110101 )
1,
b0000001000100001 /
#23400000000
0#
0,
#23500000000
1#
b0000001000100110 &
b1110110 )
1,
b0000001000100110 /
#23600000000
0#
0,
#23700000000
1#
b0000001000101011 &
b1110111 )
1,
b0000001000101011 /
#23800000000
0#
0,
#23900000000
1#
b0000001000110000 &
b1111000 )
1,
b0000001000110000 /
#24000000000
0#
0,
#24100000000
1#
b0000001000110101 &
b1111001 )
1,
b0000001000110101 /
#24200000000
0#
0,
#24300000000
1#
b0000001000111010 &
b1111010 )
1,
b0000001000111010 /
#24400000000
0#
0,
#24500000000
1#
b0000001000111111 &
b1111011 )
1,
b0000001000111111 /
#24600000000
0#
0,
#24700000000
1#
b0000001001000100 &
b1111100 )
1,
b0000001001000100 /
#24800000000
0#
0,
#24900000000
1#
b0000001001001001 &
b1111101 )
1,
b0000001001001001 /
#25000000000
0#
0,
#25100000000
1#
b0000001001001110 &
b1111110 )
1,
b0000001001001110 /
#25200000000
0#
0,
#25300000000
1#
b0000001001010011 &
b1111111 )
1,
b0000001001010011 /
#25400000000
0#
0,
#25500000000
1#
b0000001001011000 &
b10000000 )
1,
b0000001001011000 /
#25600000000
0#
0,
#25700000000
1#
b0000001001011101 &
b10000001 )
1,
b0000001001011101 /
#25800000000
0#
0,
#25900000000
1#
b0000001001100010 &
b10000010 )
1,
b0000001001100010 /
#26000000000
0#
0,
#26100000000
1#
b0000001001100111 &
b10000011 )
1,
b0000001001100111 /
#26200000000
0#
0,
#26300000000
1#
b0000001001101100 &
b10000100 )
1,
b0000001001101100 /
#26400000000
0#
0,
#26500000000
1#
b0000001001110001 &
b10000101 )
1,
b0000001001110001 /
#26600000000
0#
0,
#26700000000
1#
b0000001001110110 &
b10000110 )
1,
b0000001001110110 /
#26800000000
0#
0,
#26900000000
1#
b0000001001111011 &
b10000111 )
1,
b0000001001111011 /
#27000000000
0#
0,
#27100000000
1#
b0000001010000000 &
b10001000 )
1,
b0000001010000000 /
#27200000000
0#
0,
#27300000000
1#
b0000001010000101 &
b10001001 )
1,
b0000001010000101 /
#27400000000
0#
0,
#27500000000
1#
b0000001010001010 &
b10001010 )
1,
b0000001010001010 /
#27600000000
0#
0,
#27700000000
1#
b0000001010001111 &
b10001011 )
1,
b0000001010001111 /
#27800000000
0#
0,
#27900000000
1#
b0000001010010100 &
b10001100 )
1,
b0000001010010100 /
#28000000000
0#
0,
#28100000000
1#
b0000001010011001 &
b10001101 )
1,
b0000001010011001 /
#28200000000
0#
0,
#28300000000
1#
b0000001010011110 &
b10001110 )
1,
b0000001010011110 /
#28400000000
0#
0,
#28500000000
1#
b0000001010100011 &
b10001111 )
1,
b0000001010100011 /
#28600000000
0#
0,
#28700000000
1#
b0000001010101000 &
b10010000 )
1,
b0000001010101000 /
#28800000000
0#
0,
#28900000000
1#
b0000001010101101 &
b10010001 )
1,
b0000001010101101 /
#29000000000
0#
0,
#29100000000
1#
b0000001010110010 &
b10010010 )
1,
b0000001010110010 /
#29200000000
0#
0,
#29300000000
1#
b0000001010110111 &
b10010011 )
1,
b0000001010110111 /
#29400000000
0#
0,
#29500000000
1#
b0000001010111100 &
b10010100 )
1,
b0000001010111100 /
#29600000000
0#
0,
#29700000000
1#
b0000001011000001 &
b10010101 )
1,
b0000001011000001 /
#29800000000
0#
0,
#29900000000
1#
b0000001011000110 &
b10010110 )
1,
b0000001011000110 /
#30000000000
0#
0,
#30100000000
1#
b0000001011001011 &
b10010111 )
1,
b0000001011001011 /
#30200000000
0#
0,
#30300000000
1#
b0000001011010000 &
b10011000 )
1,
b0000001011010000 /
#30400000000
0#
0,
#30500000000
1#
b0000001011010101 &
b10011001 )
1,
b0000001011010101 /
#30600000000
0#
0,
#30700000000
1#
b0000001011011010 &
b10011010 )
1,
b0000001011011010 /
#30800000000
0#
0,
#30900000000
1#
b0000001011011111 &
b10011011 )
1,
b0000001011011111 /
#31000000000
0#
0,
#31100000000
1#
b0000001011100100 &
b10011100 )
1,
b0000001011100100 /
#31200000000
0#
0,
#31300000000
1#
b0000001011101001 &
b10011101 )
1,
b0000001011101001 /
#31400000000
0#
0,
#31500000000
1#
b0000001011101110 &
b10011110 )
1,
b0000001011101110 /
#31600000000
0#
0,
#31700000000
1#
b0000001011110011 &
b10011111 )
1,
b0000001011110011 /
#31800000000
0#
0,
#31900000000
1#
b0000001011111000 &
b10100000 )
1,
b0000001011111000 /
#32000000000
0#
0,
#32100000000
1#
b0000001011111101 &
b10100001 )
1,
b0000001011111101 /
#32200000000
0#
0,
#32300000000
1#
b0000001100000010 &
b10100010 )
1,
b0000001100000010 /
#32400000000
0#
0,
#32500000000
1#
b0000001100000111 &
b10100011 )
1,
b0000001100000111 /
#32600000000
0#
0,
#32700000000
1#
b0000001100001100 &
b10100100 )
1,
b0000001100001100 /
#32800000000
0#
0,
#32900000000
1#
b0000001100010001 &
b10100101 )
1,
b0000001100010001 /
#33000000000
0#
0,
#33100000000
1#
b0000001100010110 &
b10100110 )
1,
b0000001100010110 /
#33200000000
0#
0,
#33300000000
1#
b0000001100011011 &
b10100111 )
1,
b0000001100011011 /
#33400000000
0#
0,
#33500000000
1#
b0000001100100000 &
b10101000 )
1,
b0000001100100000 /
#33600000000
0#
0,
#33700000000
1#
b0000001100100101 &
b10101001 )
1,
b0000001100100101 /
#33800000000
0#
0,
#33900000000
1#
b0000001100101010 &
b10101010 )
1,
b0000001100101010 /
#34000000000
0#
0,
#34100000000
1#
b0000001100101111 &
b10101011 )
1,
b0000001100101111 /
#34200000000
0#
0,
#34300000000
1#
b0000001100110100 &
b10101100 )
1,
b0000001100110100 /
#34400000000
0#
0,
#34500000000
1#
b0000001100111001 &
b10101101 )
1,
b0000001100111001 /
#34600000000
0#
0,
#34700000000
1#
b0000001100111110 &
b10101110 )
1,
b0000001100111110 /
#34800000000
0#
0,
#34900000000
1#
b0000001101000011 &
b10101111 )
1,
b0000001101000011 /
#35000000000
0#
0,
#35100000000
1#
b0000001101001000 &
b10110000 )
1,
b0000001101001000 /
#35200000000
0#
0,
#35300000000
1#
b0000001101001101 &
b10110001 )
1,
b0000001101001101 /
#35400000000
0#
0,
#35500000000
1#
b0000001101010010 &
b10110010 )
1,
b0000001101010010 /
#35600000000
0#
0,
#35700000000
1#
b0000001101010111 &
b10110011 )
1,
b0000001101010111 /
#35800000000
0#
0,
#35900000000
1#
b0000001101011100 &
b10110100 )
1,
b0000001101011100 /
#36000000000
0#
0,
#36100000000
1#
b0000001101100001 &
b10110101 )
1,
b0000001101100001 /
#36200000000
0#
0,
#36300000000
1#
b0000001101100110 &
b10110110 )
1,
b0000001101100110 /
#36400000000
0#
0,
#36500000000
1#
b0000001101101011 &
b10110111 )
1,
b0000001101101011 /
#36600000000
0#
0,
#36700000000
1#
b0000001101110000 &
b10111000 )
1,
b0000001101110000 /
#36800000000
0#
0,
#36900000000
1#
b0000001101110101 &
b10111001 )
1,
b0000001101110101 /
#37000000000
0#
0,
#37100000000
1#
b0000001101111010 &
b10111010 )
1,
b0000001101111010 /
#37200000000
0#
0,
#37300000000
1#
b0000001101111111 &
b10111011 )
1,
b0000001101111111 /
#37400000000
0#
0,
#37500000000
1#
b0000001110000100 &
b10111100 )
1,
b0000001110000100 /
#37600000000
0#
0,
#37700000000
1#
b0000001110001001 &
b10111101 )
1,
b0000001110001001 /
#37800000000
0#
0,
#37900000000
1#
b0000001110001110 &
b10111110 )
1,
b0000001110001110 /
#38000000000
0#
0,
#38100000000
1#
b0000001110010011 &
b10111111 )
1,
b0000001110010011 /
#38200000000
0#
0,
#38300000000
1#
b0000001110011000 &
b11000000 )
1,
b0000001110011000 /
#38400000000
0#
0,
#38500000000
1#
b0000001110011101 &
b11000001 )
1,
b0000001110011101 /
#38600000000
0#
0,
#38700000000
1#
b0000001110100010 &
b11000010 )
1,
b0000001110100010 /
#38800000000
0#
0,
#38900000000
1#
b0000001110100111 &
b11000011 )
1,
b0000001110100111 /
#39000000000
0#
0,
#39100000000
1#
b0000001110101100 &
b11000100 )
1,
b0000001110101100 /
#39200000000
0#
0,
#39300000000
1#
b0000001110110001 &
b11000101 )
1,
b0000001110110001 /
#39400000000
0#
0,
#39500000000
1#
b0000001110110110 &
b11000110 )
1,
b0000001110110110 /
#39600000000
0#
0,
#39700000000
1#
b0000001110111011 &
b11000111 )
1,
b0000001110111011 /
#39800000000
0#
0,
#39900000000
1#
b0000001111000000 &
b11001000 )
1,
b0000001111000000 /
#40000000000
0#
0,
#40100000000
1#
b0000001111000101 &
b11001001 )
1,
b0000001111000101 /
#40200000000
0#
0,
#40300000000
1#
b0000001111001010 &
b11001010 )
1,
b0000001111001010 /
#40400000000
0#
0,
#40500000000
1#
b0000001111001111 &
b11001011 )
1,
b0000001111001111 /
#40600000000
0#
0,
#40700000000
1#
b0000001111010100 &
b11001100 )
1,
b0000001111010100 /
#40800000000
0#
0,
#40900000000
1#
b0000001111011001 &
b11001101 )
1,
b0000001111011001 /
#41000000000
0#
0,
#41100000000
1#
b0000001111011110 &
b11001110 )
1,
b0000001111011110 /
#41200000000
0#
0,
#41300000000
1#
b0000001111100011 &
b11001111 )
1,
b0000001111100011 /
#41400000000
0#
0,
#41500000000
1#
b0000001111101000 &
b11010000 )
1,
b0000001111101000 /
#41600000000
0#
0,
#41700000000
1#
b0000001111101101 &
b11010001 )
1,
b0000001111101101 /
#41800000000
0#
0,
#41900000000
1#
b0000001111110010 &
b11010010 )
1,
b0000001111110010 /
#42000000000
0#
0,
#42100000000
1#
b0000001111110111 &
b11010011 )
1,
b0000001111110111 /
#42200000000
0#
0,
#42300000000
1#
b0000001111111100 &
b11010100 )
1,
b0000001111111100 /
#42400000000
0#
0,
#42500000000
1#
b0000010000000001 &
b11010101 )
1,
b0000010000000001 /
#42600000000
0#
0,
#42700000000
1#
b0000010000000110 &
b11010110 )
1,
b0000010000000110 /
#42800000000
0#
0,
#42900000000
1#
b0000010000001011 &
b11010111 )
1,
b0000010000001011 /
#43000000000
0#
0,
#43100000000
1#
b0000010000010000 &
b11011000 )
1,
b0000010000010000 /
#43200000000
0#
0,
#43300000000
1#
b0000010000010101 &
b11011001 )
1,
b0000010000010101 /
#43400000000
0#
0,
#43500000000
1#
b0000010000011010 &
b11011010 )
1,
b0000010000011010 /
#43600000000
0#
0,
#43700000000
1#
b0000010000011111 &
b11011011 )
1,
b0000010000011111 /
#43800000000
0#
0,
#43900000000
1#
b0000010000100100 &
b11011100 )
1,
b0000010000100100 /
#44000000000
0#
0,
#44100000000
1#
b0000010000101001 &
b11011101 )
1,
b0000010000101001 /
#44200000000
0#
0,
#44300000000
1#
b0000010000101110 &
b11011110 )
1,
b0000010000101110 /
#44400000000
0#
0,
#44500000000
1#
b0000010000110011 &
b11011111 )
1,
b0000010000110011 /
#44600000000
0#
0,
#44700000000
1#
b0000010000111000 &
b11100000 )
1,
b0000010000111000 /
#44800000000
0#
0,
#44900000000
1#
b0000010000111101 &
b11100001 )
1,
b0000010000111101 /
#45000000000
0#
0,
#45100000000
1#
b0000010001000010 &
b11100010 )
1,
b0000010001000010 /
#45200000000
0#
0,
#45300000000
1#
b0000010001000111 &
b11100011 )
1,
b0000010001000111 /
#45400000000
0#
0,
#45500000000
1#
b0000010001001100 &
b11100100 )
1,
b0000010001001100 /
#45600000000
0#
0,
#45700000000
1#
b0000010001010001 &
b11100101 )
1,
b0000010001010001 /
#45800000000
0#
0,
#45900000000
1#
b0000010001010110 &
b11100110 )
1,
b0000010001010110 /
#46000000000
0#
0,
#46100000000
1#
b0000010001011011 &
b11100111 )
1,
b0000010001011011 /
#46200000000
0#
0,
#46300000000
1#
b0000010001100000 &
b11101000 )
1,
b0000010001100000 /
#46400000000
0#
0,
#46500000000
1#
b0000010001100101 &
b11101001 )
1,
b0000010001100101 /
#46600000000
0#
0,
#46700000000
1#
b0000010001101010 &
b11101010 )
1,
b0000010001101010 /
#46800000000
0#
0,
#46900000000
1#
b0000010001101111 &
b11101011 )
1,
b0000010001101111 /
#47000000000
0#
0,
#47100000000
1#
b0000010001110100 &
b11101100 )
1,
b0000010001110100 /
#47200000000
0#
0,
#47300000000
1#
b0000010001111001 &
b11101101 )
1,
b0000010001111001 /
#47400000000
0#
0,
#47500000000
1#
b0000010001111110 &
b11101110 )
1,
b0000010001111110 /
#47600000000
0#
0,
#47700000000
1#
b0000010010000011 &
b11101111 )
1,
b0000010010000011 /
#47800000000
0#
0,
#47900000000
1#
b0000010010001000 &
b11110000 )
1,
b0000010010001000 /
#48000000000
0#
0,
#48100000000
1#
b0000010010001101 &
b11110001 )
1,
b0000010010001101 /
#48200000000
0#
0,
#48300000000
1#
b0000010010010010 &
b11110010 )
1,
b0000010010010010 /
#48400000000
0#
0,
#48500000000
1#
b0000010010010111 &
b11110011 )
1,
b0000010010010111 /
#48600000000
0#
0,
#48700000000
1#
b0000010010011100 &
b11110100 )
1,
b0000010010011100 /
#48800000000
0#
0,
#48900000000
1#
b0000010010100001 &
b11110101 )
1,
b0000010010100001 /
#49000000000
0#
0,
#49100000000
1#
b0000010010100110 &
b11110110 )
1,
b0000010010100110 /
#49200000000
0#
0,
#49300000000
1#
b0000010010101011 &
b11110111 )
1,
b0000010010101011 /
#49400000000
0#
0,
#49500000000
1#
b0000010010110000 &
b11111000 )
1,
b0000010010110000 /
#49600000000
0#
0,
#49700000000
1#
b0000010010110101 &
b11111001 )
1,
b0000010010110101 /
#49800000000
0#
0,
#49900000000
1#
b0000010010111010 &
b11111010 )
1,
b0000010010111010 /
#50000000000
0#
0,
#50100000000
1#
b0000010010111111 &
b11111011 )
1,
b0000010010111111 /
#50200000000
0#
0,
#50300000000
1#
b0000010011000100 &
b11111100 )
1,
b0000010011000100 /
#50400000000
0#
0,
#50500000000
1#
b0000010011001001 &
b11111101 )
1,
b0000010011001001 /
#50600000000
0#
0,
#50700000000
1#
b0000010011001110 &
b11111110 )
1,
b0000010011001110 /
#50800000000
0#
0,
#50900000000
1#
b0000010011010011 &
b11111111 )
1,
b0000010011010011 /
#51000000000
0#
0,
#51100000000
1#
b0000010011011000 &
b100000000 )
1,
b0000010011011000 /
#51200000000
0#
0,
#51300000000
1#
b0000010011011101 &
b100000001 )
1,
b0000010011011101 /
#51400000000
0#
0,
#51500000000
1#
b0000010011100010 &
b100000010 )
1,
b0000010011100010 /
#51600000000
0#
0,
#51700000000
1#
b0000010011100111 &
b100000011 )
1,
b0000010011100111 /
#51800000000
0#
0,
#51900000000
1#
b0000010011101100 &
b100000100 )
1,
b0000010011101100 /
#52000000000
0#
0,
#52100000000
1#
b0000010011110001 &
b100000101 )
1,
b0000010011110001 /
#52200000000
0#
0,
#52300000000
1#
b0000010011110110 &
b100000110 )
1,
b0000010011110110 /
#52400000000
0#
0,
#52500000000
1#
b0000010011111011 &
b100000111 )
1,
b0000010011111011 /
#52600000000
0#
0,
#52700000000
1#
b0000010100000000 &
b100001000 )
1,
b0000010100000000 /
#52800000000
0#
1'
0,
10
#52900000000
1#
b100001001 )
1,
#53000000000
0#
0,
#53100000000
1#
b100001010 )
1,
#53200000000
0#
0,
#53300000000
1#
b100001011 )
1,
#53400000000
0#
0,
#53500000000
1#
b100001100 )
1,
#53600000000
0#
0,
#53700000000
1#
b100001101 )
1,
#53800000000
0#
0,
#53900000000
1#
b100001110 )
1,
#54000000000
0#
0,
#54100000000
1#
b100001111 )
1,
#54200000000
0#
0,
#54300000000
1#
b100010000 )
1,
#54400000000
0#
0,
#54500000000
1#
b100010001 )
1,
#54600000000
0#
0,
#54700000000
1#
b100010010 )
1,
#54800000000
0#
0,
#54900000000
1#
b100010011 )
1,
#55000000000
0#
0,
#55100000000
1#
b100010100 )
1,
#55200000000
0#
0,
#55300000000
1#
b100010101 )
1,
#55400000000
0#
0,
#55500000000
1#
b100010110 )
1,
#55600000000
0#
0,
#55700000000
1#
b100010111 )
1,
#55800000000
0#
0,
#55900000000
1#
b100011000 )
1,
#56000000000
0#
0,
#56100000000
1#
b100011001 )
1,
#56200000000
0#
0,
#56300000000
1#
b100011010 )
1,
#56400000000
0#
0,
#56500000000
1#
b100011011 )
1,
#56600000000
0#
0,
#56700000000
1#
b100011100 )
1,
#56800000000
0#
0,
#56900000000
1#
b100011101 )
1,
#57000000000
0#
0,
#57100000000
1#
b100011110 )
1,
#57200000000
0#
0,
#57300000000
1#
b100011111 )
1,
#57400000000
0#
0,
#57500000000
1#
b100100000 )
1,
#57600000000
0#
0,
#57700000000
1#
b100100001 )
1,
#57800000000
0#
0,
#57900000000
1#
b100100010 )
1,
#58000000000
0#
0,
#58100000000
1#
b100100011 )
1,
#58200000000
0#
0,
#58300000000
1#
b100100100 )
1,
#58400000000
0#
0,
#58500000000
1#
b100100101 )
1,
#58600000000
0#
0,
#58700000000
1#
b100100110 )
1,
#58800000000
0#
0,
#58900000000
1#
b100100111 )
1,
#59000000000
0#
0,
#59100000000
1#
b100101000 )
1,
#59200000000
0#
0,
#59300000000
1#
b100101001 )
1,
#59400000000
0#
0,
#59500000000
1#
b100101010 )
1,
#59600000000
0#
0,
#59700000000
1#
b100101011 )
1,
#59800000000
0#
0,
#59900000000
1#
b100101100 )
1,
#60000000000
0#
0,
#60100000000
1#
b100101101 )
1,
#60200000000
0#
0,
#60300000000
1#
b100101110 )
1,
#60400000000
0#
0,
#60500000000
1#
b100101111 )
1,
#60600000000
0#
0,
#60700000000
1#
b100110000 )
1,
